…
Below is a table summarizing the number of items ordered from aisle. In
total, there are 134 aisles, with fresh vegetables and fresh fruits
holding the most items ordered by far.

``` r
instacart %>% 
  count(aisle) %>% 
  arrange(desc(n))
```

    ## # A tibble: 134 × 2
    ##    aisle                              n
    ##    <chr>                          <int>
    ##  1 fresh vegetables              150609
    ##  2 fresh fruits                  150473
    ##  3 packaged vegetables fruits     78493
    ##  4 yogurt                         55240
    ##  5 packaged cheese                41699
    ##  6 water seltzer sparkling water  36617
    ##  7 milk                           32644
    ##  8 chips pretzels                 31269
    ##  9 soy lactosefree                26240
    ## 10 bread                          23635
    ## # … with 124 more rows
…
``` r
noaa <- ny_noaa %>%
  janitor::clean_names() %>%
  separate(date, c("year", "month", "day"), sep = "-", convert = TRUE) %>%
  mutate(
    month = month.name[as.integer(month)],
    prcp = prcp / 10,
    tmax = as.numeric(tmax) / 10, 
    tmin = as.numeric(tmin) / 10    # switch to proper units
    )
noaa
```

    ## # A tibble: 2,595,176 × 9
    ##    id           year month      day  prcp  snow  snwd  tmax  tmin
    ##    <chr>       <int> <chr>    <int> <dbl> <int> <int> <dbl> <dbl>
    ##  1 US1NYAB0001  2007 November     1    NA    NA    NA    NA    NA
    ##  2 US1NYAB0001  2007 November     2    NA    NA    NA    NA    NA
    ##  3 US1NYAB0001  2007 November     3    NA    NA    NA    NA    NA
    ##  4 US1NYAB0001  2007 November     4    NA    NA    NA    NA    NA
    ##  5 US1NYAB0001  2007 November     5    NA    NA    NA    NA    NA
    ##  6 US1NYAB0001  2007 November     6    NA    NA    NA    NA    NA
    ##  7 US1NYAB0001  2007 November     7    NA    NA    NA    NA    NA
    ##  8 US1NYAB0001  2007 November     8    NA    NA    NA    NA    NA
    ##  9 US1NYAB0001  2007 November     9    NA    NA    NA    NA    NA
    ## 10 US1NYAB0001  2007 November    10    NA    NA    NA    NA    NA
    ## # … with 2,595,166 more rows
…
### 3. snowfall

``` r
noaa %>% 
  group_by(snow) %>% 
  summarise(frequency = n()) %>%  # count the occurrence of each observed snowfall data
  arrange(desc(frequency))        # arrange the data in descending order to find the most frequent ones
```

    ## # A tibble: 282 × 2
    ##     snow frequency
    ##    <int>     <int>
    ##  1     0   2008508
    ##  2    NA    381221
    ##  3    25     31022
    ##  4    13     23095
    ##  5    51     18274
    ##  6    76     10173
    ##  7     8      9962
    ##  8     5      9748
    ##  9    38      9197
    ## 10     3      8790
    ## # … with 272 more rows
…
